




["remote", "control"]

["right", "corner"]
["i/p", "button"]



["remote", "control"]
["right", "corner"]
["video", "output signal"]
["good", "picture"]



["i/p", "button"]
["first", "place"]["accidentally", "button"]


["occasional", "wwhhhrrr sound"]




["great", "feature set"]
["fast-forward", "work"]

["great", "price"]




["rare", "feature"]

["nice", "thing"]
["optical", "cable"]

["cool", "feature"]
["normal", "size"]
["rock-bottom", "price"]


["new", "format"]
["dual-layer", "dvd"]




["technical", "support"]

["slim", "case"]










["very bad", "quality"]
["good", "value"]



["same", "company"]

["great", "value"]
["great", "quality picture"]










["disposable", "type"]
["first", "day"]

["decent", "something"]
["steady", "performer"]


["new", "electronics smell"]
["only", "thing"]
["temporary", "dust issue"]


["cd-r", "data disk"]["big", "fact"]





["professional", "video gear"]
["progressive", "feature"]


["after-sale", "support"]







["lonely", "customer rep"]
["enought", "electricity"]

["negative", "rating"]
["surprised", "amazon"]





["big", "favor"]

["fair", "warning"]





["great", "experience"]

["rental", "dvd"]
["different", "dvd"]
["them.the", "customer number"]



["several", "tv"]








["same", "thing"]

["late", "return"]




["whole", "player"]




["regular", "line"]









["such", "crap"]


["other", "moment"]
["other", "thing"]



["entire", "unit"]["poorly", "unit"]
["internal", "control board"]

["great", "condition"]



["raw", "mpeg2"]



["new", "dvd player"]





["non-american", "region dvd"]

["different", "file"]
["mpeg", "video"]
["great", "feature"]



["low", "profile"]
["great", "buy"]
["free", "dvd player"]


["second", "apex player"]
["first", "player"]
["same", "story"]
["long", "run"]
["smart", "ripper"]
["great", "job"]
["slim", "design"]
["1st", "month"]





["good", "going"]

["regular", "mp3 cd"]


["european", "type type"]

["long-term", "reliability"]

["bottom", "line"]


["s-video", "output"]["seperately", "s-video cable"]
["remote", "control"]

["big", "difference"]



["future", "gift"]







["long", "run"]




["panasonic", "dvd"]
["wrong", "mode"]





["certain", "disney"]
["same", "problem"]
["new", "dvd player"]
["dvd-rom", "dvd player"]

["sharp", "player"]


["high-end", "apex player"]

["good", "unit"]

["mirror-like", "front panel"]
["bad", "thing"]["flimsy", "thing"]
["free", "shipping"]



["not available", "replacement"]

["on-line", "support site"]
["digital", "apex product"]
["good", "dvd player"]

["next", "chapter"]


["composite", "video"]



["remote", "control"]
["progressive", "mode"]
["progressive", "mode"]

["poor", "manual"]
["=", "p/n"]
["stupid", "move"]

["reviews-my", "unit"]
["busy", "signal"]









["relatively low", "price"]
["fairly loud", "disc noise"]
["old", "apex ad-1200"]
["non-hd", "tv"]



["other", "gripe"]


["perceptible", "difference"]
["first", "dvd player"]
["fine", "right"]
["widescreen", "dvd"]

["very shiny", "chrome"]
["red", "light"]






["more expensive", "r disc"]
["small", "form factor"]




["first", "product"]


["same", "thing"]

["same", "thing"]










["on/off", "button"]









["present", "christmas"]
["first", "disk"]

["e-mail", "address"]







["eamil", "contact contact"]
["excellent", "price"]


["present", "christmas"]




["physical", "appearance"]

["easy", "ability"]







["excellent", "picture quality"]


["initial", "impression"]
["more frequent", "use"]
["old", "pioneer"]
["present", "christmas"]
["perfect", "condition"]
["sleek", "design"]






["regular", "apex dvd-player"]





["dvd-r", "rw"]







["onkyo", "dvd player"]


["small", "case"]





["video", "output"]
["second", "dvd player"]
["attractive", "machine"]
["basic", "usage"]




["big", "deal"]

["real", "problem"]


["additional", "tweaking"]
["cautious", "recommendation"]








["video", "output"]
["video", "output"]
["video", "output failure"]
["multiformat", "dvd"]

["ad-2600", "apex player"]

["lip-sync", "issue"]

["next", "day"]["wonderful", "amazon"]




["orignal", "review"]
["poor", "reliability"]

["free", "return shipping"]
["silver", "plate"]






["remote", "control"]



["first", "one"]
["second", "one"]









["video", "output"]







["dont", "buy"]
["good", "styling"]

["very long", "time"]
["poor", "video"]







["second", "dvd player"]
["absolute", "instant disdain"]
["faulty", "power supply"]

["old", "dvd drive"]
["last", "month"]




["great", "reputation"]



["very nice", "dvd player"]
["very annoying", "thing"]
["wide", "range"]

["low", "dvd player"]
["21st", "century"]





["good", "deal"]
["=", "rebate"]







["last", "night"]



["technical", "support number"]

["original", "back"]["currently", "company"]
["just fine", "replacement"]





["new", "rating"]



["remote", "sony commander"]
["small", "problem"]




["dissapointment", "worth"]



["further", "adoo"]

["wrong", "something"]
["whole", "unit"]

["remote", "control"]













["little", "inconveinent"]

["present", "christmas"]

["new", "disc"]





["expensive", "addition"]
["different", "dvd player"]


["long", "time"]













["huge", "disappointment"]


["extremely slow", "speed"]


["small", "size"]
["very embarassing", "gift"]
["very inexpensive", "player.for"]
["really wrong", "something"]
["standard", "set"]



["first", "dvd"]





["next", "thought"]
["small", "scratch"]
["old", "unit"]








["different", "brand"]





["audio", "cd"]




["plasticky", "feel"]



["first", "dvd player"]

["cheap", "quality brand"]




["good", "review"]
["disipointed", "customer"]








["reliable", "brand"]


["false", "silver plate"]


["yet false", "silver plate"]

["large", "lawsuit"]






["decent", "player"]
["good", "quality video"]





["mixed", "bag guess"]
["third", "apex product"]

["good", "dd5"]
["current", "price"]

["good", "qulaity player"]










["special", "touch"]





["every-day", "viewing"]






